1 Left_Cerebral_Exterior 0.26 0.0  0
2 Left_Cerebral_White_Matter 1.05 0.0 111
3 Left_Cerebral_Cortex 0.97 0.0 62
4 Left_Lateral_Ventricle 0.21 0.0  6
5 Left_Inf_Lat_Vent 0.96 0.0 34
7 Left_Cerebellum_White_Matter 1.05 0.0 92
8 Left_Cerebellum_Cortex 0.97 0.0 59
9 Left_Thalamus 0.94 0.0  0
10 Left_Thalamus_Proper 0.95 0.0 91
11 Left_Caudate 0.85 0.0 64
12 Left_Putamen 0.90 0.0 74
13 Left_Pallidum 1.02 0.0 98
14 Third_Ventricle 0.31 0.0 11
15 Fourth_Ventricle 0.27 0.0  6
16 Brain_Stem 1.02 0.0 88
17 Left_Hippocampus 0.96 0.0 60
18 Left_Amygdala 0.93 0.0 59
24 CSF 0.26 0.0 12
26 Left_Accumbens_area 0.85 0.0 60
28 Left_VentralDC 1.08 0.0 99
40 Right_Cerebral_Exterior 0.26 0.0  0
41 Right_Cerebral_White_Matter 1.02 0.0 108
42 Right_Cerebral_Cortex 0.97 0.0 63
43 Right_Lateral_Ventricle 0.26 0.0  6
44 Right_Inf_Lat_Vent 0.88 0.0 28
46 Right_Cerebellum_White_Matter 1.05 0.0 91
47 Right_Cerebellum_Cortex 0.97 0.0 58
48 Right_Thalamus 0.94 0.0  0
49 Right_Thalamus_Proper 1.00 0.0 85
50 Right_Caudate 0.95 0.0 67
51 Right_Putamen 0.93 0.0 70
52 Right_Pallidum 1.00 0.0 97
53 Right_Hippocampus 0.88 0.0 54
54 Right_Amygdala 0.90 0.0 56
58 Right_Accumbens_area 0.95 0.0 68
60 Right_VentralDC 1.08 0.0 101
72 Fifth_Ventricle 0.26 0.0 12
75 Left_Lateral_Ventricles 0.26 0.0  0
76 Right_Lateral_Ventricles 0.26 0.0  0
77 WM_hypointensities 1.04 0.0 85
78 Left_WM_hypointensities 1.04 0.0  0
79 Right_WM_hypointensities 1.04 0.0  0
80 non_WM_hypointensities 1.04 0.0 55
81 Left_non_WM_hypointensities 1.04 0.0  0
82 Right_non_WM_hypointensities 1.04 0.0  0
186  1.04 0.0  0
187  1.04 0.0  0
